{
"current_page": 1,
"from": 1,
"to": 10,
"last_page": 5,
"per_page": 10,
"prev_page_url": null,
"next_page_url": null,
"limit": 4,
"total": 100,
"data": [
      {
         "ein":464744976,
         "strein":"46-4744974",
         "name":"0 DEBT EDUCATION INC",
         "sub_name":"0 DEBT EDUCATION INC",
         "city":"SANTA ROSA",
         "state":"CA",
         "ntee_code":"P51",
         "raw_ntee_code":"P51",
         "subseccd":3,
         "has_subseccd":true,
         "have_filings":true,
         "have_extracts":true,
         "have_pdfs":true,
         "score":1.0
      },
      {
         "ein":272620044,
         "strein":"27-2620044",
         "name":"0 TOLERANCE INC",
         "sub_name":"0 TOLERANCE INC",
         "city":"SUWANEE",
         "state":"GA",
         "ntee_code":"B99",
         "raw_ntee_code":"B99",
         "subseccd":3,
         "has_subseccd":true,
         "have_filings":null,
         "have_extracts":null,
         "have_pdfs":null,
         "score":1.0
      },
      {
         "ein":814045228,
         "strein":"81-4045228",
         "name":"0 U R PASSION",
         "sub_name":"0 U R PASSION",
         "city":"KENNEWICK",
         "state":"WA",
         "ntee_code":"L40",
         "raw_ntee_code":"L40",
         "subseccd":3,
         "has_subseccd":true,
         "have_filings":null,
         "have_extracts":null,
         "have_pdfs":null,
         "score":1.0
      },
      {
         "ein":824704419,
         "strein":"82-4704419",
         "name":"00 MOVEMENT INC",
         "sub_name":"00 MOVEMENT INC",
         "city":"PENSACOLA",
         "state":"FL",
         "ntee_code":"X20",
         "raw_ntee_code":"X20",
         "subseccd":3,
         "has_subseccd":true,
         "have_filings":null,
         "have_extracts":null,
         "have_pdfs":null,
         "score":1.0
      },
      {
         "ein":226062777,
         "strein":"22-6062777",
         "name":"00006 LOCAL",
         "sub_name":"00006 LOCAL",
         "city":"MEDIA",
         "state":"PA",
         "ntee_code":null,
         "raw_ntee_code":null,
         "subseccd":5,
         "has_subseccd":true,
         "have_filings":true,
         "have_extracts":true,
         "have_pdfs":true,
         "score":1.0
      },
      {
         "ein":310240910,
         "strein":"31-0240910",
         "name":"0003 POSTAL FAMILY",
         "sub_name":"0003 POSTAL FAMILY",
         "city":"CINCINNATI",
         "state":"OH",
         "ntee_code":null,
         "raw_ntee_code":null,
         "subseccd":14,
         "has_subseccd":true,
         "have_filings":null,
         "have_extracts":null,
         "have_pdfs":null,
         "score":1.0
      },
      {
         "ein":581514574,
         "strein":"58-1514574",
         "name":"0005 GA",
         "sub_name":"0005 GA",
         "city":"HEPHZIBAH",
         "state":"GA",
         "ntee_code":null,
         "raw_ntee_code":null,
         "subseccd":19,
         "has_subseccd":true,
         "have_filings":null,
         "have_extracts":null,
         "have_pdfs":null,
         "score":1.0
      },
      {
         "ein":310278870,
         "strein":"31-0278870",
         "name":"0005 WRIGHT-PATT CREDIT UNION",
         "sub_name":"0005 WRIGHT-PATT CREDIT UNION",
         "city":"BEAVERCREEK",
         "state":"OH",
         "ntee_code":null,
         "raw_ntee_code":null,
         "subseccd":14,
         "has_subseccd":true,
         "have_filings":null,
         "have_extracts":null,
         "have_pdfs":null,
         "score":1.0
      },
      {
         "ein":264507405,
         "strein":"26-4507405",
         "name":"0009 DE",
         "sub_name":"0009 DE",
         "city":"GREENWOOD",
         "state":"DE",
         "ntee_code":null,
         "raw_ntee_code":null,
         "subseccd":19,
         "has_subseccd":true,
         "have_filings":null,
         "have_extracts":null,
         "have_pdfs":null,
         "score":1.0
      },
      {
         "ein":364654777,
         "strein":"36-4654777",
         "name":"0011 CALIFORNIA",
         "sub_name":"0011 CALIFORNIA",
         "city":"REDWAY",
         "state":"CA",
         "ntee_code":null,
         "raw_ntee_code":null,
         "subseccd":19,
         "has_subseccd":true,
         "have_filings":null,
         "have_extracts":null,
         "have_pdfs":null,
         "score":1.0
      },
      {
         "ein":940507697,
         "strein":"94-0507697",
         "name":"00141 LOCAL",
         "sub_name":"00141 LOCAL",
         "city":"MEDIA",
         "state":"PA",
         "ntee_code":null,
         "raw_ntee_code":null,
         "subseccd":5,
         "has_subseccd":true,
         "have_filings":true,
         "have_extracts":true,
         "have_pdfs":true,
         "score":1.0
      }
]}
